{
  "DESCRIPTION": "MB arc bending magnets. 8 sectors with 154 magnets each in series.",
  "TIME-VALIDITY": {
    "COMMENT": "This version of RB metadata is valid for Run2",
    "YEAR-START": 2014,
    "YEAR-END": 2018
  },
  "META_VARIABLES": [
    "%CIRCUIT%",
    "%CIP%",
    "%SECTORID%",
    "%PIC%",
    "%PC%",
    "%CELL%",
    "%MAGNET%",
    "%QPS_CRATE%",
    "%BUSBAR%",
    "%DFB%",
    "%DFB_PREFIX%",
    "%EE_ODD%",
    "%EE_EVEN%",
    "%CRYOSTAT2%"
  ],
  "META_TABLES": [
    "magnet/RB_LayoutDetails.csv",
    "magnet/RB_MagnetCellQpscrateSector.csv",
    "magnet/RB_MagnetHistory.csv",
    "busbar/nQPS_RB_busBarProtectionDetails.csv",
    "qps_crate/RB_CrateToMagnetAndVoltageFeelerMap.csv",
    "qps_crate/RB_CrateToDiodeMap.csv"
  ],
  "COMMENT": "Each circuit has a dictionary key which describes specific characteristics",
  "CIRCUITS": {
    "RB.A12": {
      "%CIRCUIT%": "RB.A12",
      "CIP": {
        "TYPE": "CIP",
        "%CIP%": [
          "CIP.UL16.AR1",
          "CIP.UA23.AL2"
        ]
      },
      "CRYO": {
        "TYPE": "CRYO",
        "%SECTORID%": "12"
      },
      "PIC": {
        "TYPE": "PIC",
        "%PIC%": [
          "RB.A12.ODD",
          "RB.A12.EVEN"
        ]
      },
      "PC": {
        "TYPE": "PC",
        "%PC%": "RPTE.UA23.RB.A12"
      },
      "QDS": {
        "TYPE": "QDS"
      },
      "QH": {
        "TYPE": "QH"
      },
      "BUSBAR": {
        "TYPE": "BUSBAR"
      },
      "DIODE_RB": {
        "TYPE": "DIODE_RB"
      },
      "VF": {
        "TYPE": "VF"
      },
      "LEADS_EVEN": {
        "TYPE": "LEADS_EVEN",
        "%DFB%": "DFLAS.7L2.RB.A12",
        "ORDER": [
          "LD1",
          "LD2"
        ],
        "%DFB_PREFIX%": [
          "DACA05_07L2_",
          "DACA06_07L2_"
        ]
      },
      "LEADS_ODD": {
        "TYPE": "LEADS_ODD",
        "%DFB%": "DFLAS.7R1.RB.A12",
        "ORDER": [
          "LD3",
          "LD4"
        ],
        "%DFB_PREFIX%": [
          "DABA01_07R1_",
          "DABA02_07R1_"
        ]
      },
      "EE_ODD": {
        "TYPE": "EE_ODD",
        "%EE_ODD%": "RR17.RB.A12"
      },
      "EE_EVEN": {
        "TYPE": "EE_EVEN",
        "%EE_EVEN%": "UA23.RB.A12"
      }
    },
    "RB.A23": {
      "%CIRCUIT%": "RB.A23",
      "CIP": {
        "TYPE": "CIP",
        "%CIP%": [
          "CIP.UA27.AR2",
          "CIP.UJ33.AL3"
        ]
      },
      "CRYO": {
        "TYPE": "CRYO",
        "%SECTORID%": "23"
      },
      "PIC": {
        "TYPE": "PIC",
        "%PIC%": [
          "RB.A23.ODD",
          "RB.A23.EVEN"
        ]
      },
      "PC": {
        "TYPE": "PC",
        "%PC%": "RPTE.UA27.RB.A23"
      },
      "QDS": {
        "TYPE": "QDS"
      },
      "QH": {
        "TYPE": "QH"
      },
      "BUSBAR": {
        "TYPE": "BUSBAR"
      },
      "DIODE_RB": {
        "TYPE": "DIODE_RB"
      },
      "VF": {
        "TYPE": "VF"
      },
      "LEADS_EVEN": {
        "TYPE": "LEADS_EVEN",
        "%DFB%": "DFLAS.7R2.RB.A23",
        "ORDER": [
          "LD1",
          "LD2"
        ],
        "%DFB_PREFIX%": [
          "DADA05_07R2_",
          "DADA06_07R2_"
        ]
      },
      "LEADS_ODD": {
        "TYPE": "LEADS_ODD",
        "%DFB%": "DFLAS.7L3.RB.A23",
        "ORDER": [
          "LD3",
          "LD4"
        ],
        "%DFB_PREFIX%": [
          "DAEA01_07L3_",
          "DAEA02_07L3_"
        ]
      },
      "EE_ODD": {
        "TYPE": "EE_ODD",
        "%EE_ODD%": "UJ33.RB.A23"
      },
      "EE_EVEN": {
        "TYPE": "EE_EVEN",
        "%EE_EVEN%": "UA27.RB.A23"
      }
    },
    "RB.A34": {
      "%CIRCUIT%": "RB.A34",
      "CIP": {
        "TYPE": "CIP",
        "%CIP%": [
          "CIP.UJ33.AR3",
          "CIP.UA43.AL4"
        ]
      },
      "CRYO": {
        "TYPE": "CRYO",
        "%SECTORID%": "34"
      },
      "PIC": {
        "TYPE": "PIC",
        "%PIC%": [
          "RB.A34.ODD",
          "RB.A34.EVEN"
        ]
      },
      "PC": {
        "TYPE": "PC",
        "%PC%": "RPTE.UA43.RB.A34"
      },
      "QDS": {
        "TYPE": "QDS"
      },
      "QH": {
        "TYPE": "QH"
      },
      "BUSBAR": {
        "TYPE": "BUSBAR"
      },
      "DIODE_RB": {
        "TYPE": "DIODE_RB"
      },
      "VF": {
        "TYPE": "VF"
      },
      "LEADS_EVEN": {
        "TYPE": "LEADS_EVEN",
        "%DFB%": "DFLAS.7L4.RB.A34",
        "ORDER": [
          "LD1",
          "LD2"
        ],
        "%DFB_PREFIX%": [
          "DAGA05_07L4_",
          "DAGA06_07L4_"
        ]
      },
      "LEADS_ODD": {
        "TYPE": "LEADS_ODD",
        "%DFB%": "DFLAS.7R3.RB.A34",
        "ORDER": [
          "LD3",
          "LD4"
        ],
        "%DFB_PREFIX%": [
          "DAFA01_07R3_",
          "DAFA02_07R3_"
        ]
      },
      "EE_ODD": {
        "TYPE": "EE_ODD",
        "%EE_ODD%": "UJ33.RB.A34"
      },
      "EE_EVEN": {
        "TYPE": "EE_EVEN",
        "%EE_EVEN%": "UA43.RB.A34"
      }
    },
    "RB.A45": {
      "%CIRCUIT%": "RB.A45",
      "CIP": {
        "TYPE": "CIP",
        "%CIP%": [
          "CIP.UA47.AR4",
          "CIP.USC55.AL5"
        ]
      },
      "CRYO": {
        "TYPE": "CRYO",
        "%SECTORID%": "45"
      },
      "PIC": {
        "TYPE": "PIC",
        "%PIC%": [
          "RB.A45.ODD",
          "RB.A45.EVEN"
        ]
      },
      "PC": {
        "TYPE": "PC",
        "%PC%": "RPTE.UA47.RB.A45"
      },
      "QDS": {
        "TYPE": "QDS"
      },
      "QH": {
        "TYPE": "QH"
      },
      "BUSBAR": {
        "TYPE": "BUSBAR"
      },
      "DIODE_RB": {
        "TYPE": "DIODE_RB"
      },
      "VF": {
        "TYPE": "VF"
      },
      "LEADS_EVEN": {
        "TYPE": "LEADS_EVEN",
        "%DFB%": "DFLAS.7R4.RB.A45",
        "ORDER": [
          "LD1",
          "LD2"
        ],
        "%DFB_PREFIX%": [
          "DAHA05_07R4_",
          "DAHA06_07R4_"
        ]
      },
      "LEADS_ODD": {
        "TYPE": "LEADS_ODD",
        "%DFB%": "DFLAS.7L5.RB.A45",
        "ORDER": [
          "LD3",
          "LD4"
        ],
        "%DFB_PREFIX%": [
          "DAIA01_07L5_",
          "DAIA02_07L5_"
        ]
      },
      "EE_ODD": {
        "TYPE": "EE_ODD",
        "%EE_ODD%": "RR53.RB.A45"
      },
      "EE_EVEN": {
        "TYPE": "EE_EVEN",
        "%EE_EVEN%": "UA47.RB.A45"
      }
    },
    "RB.A56": {
      "%CIRCUIT%": "RB.A56",
      "CIP": [
        {
          "%CIP%": "CIP.UL557.AR5",
          "TYPE": "CIP"
        },
        {
          "%CIP%": "CIP.UA63.AL6",
          "TYPE": "CIP"
        }
      ],
      "CRYO": {
        "%SECTORID%": "56",
        "TYPE": "CRYO"
      },
      "PIC": {
        "TYPE": "PIC",
        "%PIC%": [
          "RB.A56.ODD",
          "RB.A56.EVEN"
        ]
      },
      "PC": {
        "TYPE": "PC",
        "%PC%": "RPTE.UA63.RB.A56"
      },
      "QDS": {
        "TYPE": "QDS"
      },
      "QH": {
        "TYPE": "QH"
      },
      "BUSBAR": {
        "TYPE": "BUSBAR"
      },
      "DIODE_RB": {
        "TYPE": "DIODE_RB"
      },
      "VF": {
        "TYPE": "VF"
      },
      "LEADS_EVEN": {
        "TYPE": "LEADS_EVEN",
        "%DFB%": "DFLAS.5L6.RB.A56",
        "ORDER": [
          "LD1",
          "LD2"
        ],
        "%DFB_PREFIX%": [
          "DAKA05_05L6_",
          "DAKA06_05L6_"
        ]
      },
      "LEADS_ODD": {
        "TYPE": "LEADS_ODD",
        "%DFB%": "DFLAS.7R5.RB.A56",
        "ORDER": [
          "LD3",
          "LD4"
        ],
        "%DFB_PREFIX%": [
          "DAJA01_07R5_",
          "DAJA02_07R5_"
        ]
      },
      "EE_ODD": {
        "TYPE": "EE_ODD",
        "%EE_ODD%": "RR57.RB.A56"
      },
      "EE_EVEN": {
        "TYPE": "EE_EVEN",
        "%EE_EVEN%": "UA63.RB.A56"
      }
    },
    "RB.A67": {
      "%CIRCUIT%": "RB.A67",
      "CIP": {
        "TYPE": "CIP",
        "%CIP%": [
          "CIP.UA67.AR6",
          "CIP.TZ76.AL7"
        ]
      },
      "CRYO": {
        "%SECTORID%": "67",
        "TYPE": "CRYO"
      },
      "PIC": {
        "TYPE": "PIC",
        "%PIC%": [
          "RB.A67.ODD",
          "RB.A67.EVEN"
        ]
      },
      "PC": {
        "%PC%": "RPTE.UA67.RB.A67",
        "TYPE": "PC"
      },
      "QDS": {
        "TYPE": "QDS"
      },
      "QH": {
        "TYPE": "QH"
      },
      "BUSBAR": {
        "TYPE": "BUSBAR"
      },
      "DIODE_RB": {
        "TYPE": "DIODE_RB"
      },
      "VF": {
        "TYPE": "VF"
      },
      "LEADS_EVEN": {
        "TYPE": "LEADS_EVEN",
        "%DFB%": "DFLAS.5R6.RB.A67",
        "ORDER": [
          "LD1",
          "LD2"
        ],
        "%DFB_PREFIX%": [
          "DALA05_05R6_",
          "DALA06_05R6_"
        ]
      },
      "LEADS_ODD": {
        "TYPE": "LEADS_ODD",
        "%DFB%": "DFLAS.7L7.RB.A67",
        "ORDER": [
          "LD3",
          "LD4"
        ],
        "%DFB_PREFIX%": [
          "DAMA01_07L7_",
          "DAMA02_07L7_"
        ]
      },
      "EE_ODD": {
        "TYPE": "EE_ODD",
        "%EE_ODD%": "RR73.RB.A67"
      },
      "EE_EVEN": {
        "TYPE": "EE_EVEN",
        "%EE_EVEN%": "UA67.RB.A67"
      }
    },
    "RB.A78": {
      "%CIRCUIT%": "RB.A78",
      "CIP": {
        "TYPE": "CIP",
        "%CIP%": [
          "CIP.TZ76.AR7",
          "CIP.UA83.AL8"
        ]
      },
      "CRYO": {
        "TYPE": "CRYO",
        "%SECTORID%": "78"
      },
      "PIC": {
        "TYPE": "PIC",
        "%PIC%": [
          "RB.A78.ODD",
          "RB.A78.EVEN"
        ]
      },
      "PC": {
        "TYPE": "PC",
        "%PC%": "RPTE.UA83.RB.A78"
      },
      "QDS": {
        "TYPE": "QDS"
      },
      "QH": {
        "TYPE": "QH"
      },
      "BUSBAR": {
        "TYPE": "BUSBAR"
      },
      "DIODE_RB": {
        "TYPE": "DIODE_RB"
      },
      "VF": {
        "TYPE": "VF"
      },
      "LEADS_EVEN": {
        "TYPE": "LEADS_EVEN",
        "%DFB%": "DFLAS.7L8.RB.A78",
        "ORDER": [
          "LD1",
          "LD2"
        ],
        "%DFB_PREFIX%": [
          "DAOA05_07L8_",
          "DAOA06_07L8_"
        ]
      },
      "LEADS_ODD": {
        "TYPE": "LEADS_ODD",
        "%DFB%": "DFLAS.7R7.RB.A78",
        "ORDER": [
          "LD3",
          "LD4"
        ],
        "%DFB_PREFIX%": [
          "DANA01_07R7_",
          "DANA02_07R7_"
        ]
      },
      "EE_ODD": {
        "TYPE": "EE_ODD",
        "%EE_ODD%": "RR77.RB.A78"
      },
      "EE_EVEN": {
        "TYPE": "EE_EVEN",
        "%EE_EVEN%": "UA83.RB.A78"
      }
    },
    "RB.A81": {
      "%CIRCUIT%": "RB.A81",
      "CIP": {
        "TYPE": "CIP",
        "%CIP%": [
          "CIP.UA87.AR8",
          "CIP.UL14.AL1"
        ]
      },
      "CRYO": {
        "TYPE": "CRYO",
        "%SECTORID%": "81"
      },
      "PIC": {
        "TYPE": "PIC",
        "%PIC%": [
          "RB.A81.ODD",
          "RB.A81.EVEN"
        ]
      },
      "PC": {
        "TYPE": "PC",
        "%PC%": "RPTE.UA87.RB.A81"
      },
      "QDS": {
        "TYPE": "QDS"
      },
      "QH": {
        "TYPE": "QH"
      },
      "BUSBAR": {
        "TYPE": "BUSBAR"
      },
      "DIODE_RB": {
        "TYPE": "DIODE_RB"
      },
      "VF": {
        "TYPE": "VF"
      },
      "LEADS_EVEN": {
        "TYPE": "LEADS_EVEN",
        "%DFB%": "DFLAS.7R8.RB.A81",
        "ORDER": [
          "LD1",
          "LD2"
        ],
        "%DFB_PREFIX%": [
          "DAPA05_07R8_",
          "DAPA06_07R8_"
        ]
      },
      "LEADS_ODD": {
        "TYPE": "LEADS_ODD",
        "%DFB%": "DFLAS.7L1.RB.A81",
        "ORDER": [
          "LD3",
          "LD4"
        ],
        "%DFB_PREFIX%": [
          "DAAA01_07L1_",
          "DAAA02_07L1_"
        ]
      },
      "EE_ODD": {
        "TYPE": "EE_ODD",
        "%EE_ODD%": "RR13.RB.A81"
      },
      "EE_EVEN": {
        "TYPE": "EE_EVEN",
        "%EE_EVEN%": "UA87.RB.A81"
      }
    }
  },
  "CIP": {
    "Comment": "%CIP% example -> CIP.UL16.AR1",
    "PM": {
    },
    "NXCALS": {
      "WINCCOA": {
        "ST_CRYO_MAINTAIN": "%CIP%:ST_CRYO_MAINTAIN",
        "ST_CRYO_START": "%CIP%:ST_CRYO_START"
      }
    }
  },
  "CRYO": {
    "Comment": "%SECTORID% example -> 12",
    "PM": {
    },
    "NXCALS": {
      "WINCCOA": {
        "PTMIN_LINC": "ARC%SECTORID%_LINC_PTMIN.POSST",
        "PTMIN_LIND": "ARC%SECTORID%_LIND_PTMIN.POSST",
        "PTMAX_LINC": "ARC%SECTORID%_LINC_PTMAX.POSST",
        "PTMAX_LIND": "ARC%SECTORID%_LIND_PTMAX.POSST",
        "PTAVG_LINC": "ARC%SECTORID%_LINC_PTAVG.POSST",
        "PTAVG_LIND": "ARC%SECTORID%_LIND_PTAVG.POSST",
        "TTMIN": "ARC%SECTORID%_MAGS_TTMIN.POSST",
        "TTMAX": "ARC%SECTORID%_MAGS_TTMAX.POSST",
        "TTAVG": "ARC%SECTORID%_MAGS_TTAVG.POSST",
        "TT821": "%CRYOSTAT2%_TT821.TEMPERATURECALC"
      }
    }
  },
  "PIC": {
    "Comment": "%PIC% example -> RB.A12.ODD",
    "PM": {
    },
    "NXCALS": {
      "WINCCOA": {
        "CMD_PWR_PERM_PIC": "%PIC%:CMD_PWR_PERM_PIC",
        "ST_ABORT_PIC": "%PIC%:ST_ABORT_PIC",
        "ST_FAILURE_PIC": "%PIC%:ST_FAILURE_PIC"
      }
    }
  },
  "PC": {
    "Comment": "%PC% example -> RPTE.UA23.RB.A12",
    "REL_IP_POS_REG_EXP": "[RB]{2}[.A]{2}\\d{2}",
    "I_MEAS_REG_EXP": "%.RB.A%:I_MEAS",
    "PM": {
      "system": "FGC",
      "source": "%PC%",
      "className": "51_self_pmd",
      "I_REF": "STATUS.I_REF",
      "I_MEAS": "STATUS.I_MEAS",
      "V_REF": "STATUS.V_REF",
      "V_MEAS": "STATUS.V_MEAS",
      "I_EARTH": "IEARTH.IEARTH",
      "I_EARTH_PCNT": "STATUS.I_EARTH_PCNT",
      "I_A": "IAB.I_A",
      "I_B": "IAB.I_B",
      "ACTION": "EVENTS.ACTION",
      "PROPERTY": "EVENTS.PROPERTY",
      "SYMBOL": "EVENTS.SYMBOL"
    },
    "NXCALS": {
      "CMW": {
        "I_MEAS": "%PC%:I_MEAS",
        "I_EARTH_MA": "%PC%:I_EARTH_MA",
        "I_REF": "%PC%:I_REF",
        "I_ERR_MA": "%PC%:I_ERR_MA",
        "V_MEAS": "%PC%:V_MEAS",
        "V_REF": "%PC%:V_REF",
        "I_EARTH_PCNT": "%PC%:I_EARTH_PCNT"
      }
    }
  },
  "QDS": {
    "Comment": "%MAGNET% example -> MB.A8R1,  %CELL% example -> A8R1",
    "PM": {
      "system": "QPS",
      "className": "DQAMCNMB_PMSTD",
      "source": "%CELL%",
      "U_QS0": "%CELL%:U_QS0",
      "U_1": "%CELL%:U_1",
      "U_2": "%CELL%:U_2",
      "ST_MAGNET_OK": "%CELL%:ST_MAGNET_OK",
      "ST_NQD0": "%CELL%:ST_NQD0",
      "ST_PWR_PERM": "%CELL%:ST_PWR_PERM"
    },
    "NXCALS": {
      "CMW": {
        "U_QS0": "%MAGNET%:U_QS0",
        "U_1": "%MAGNET%:U_1",
        "U_2": "%MAGNET%:U_2",
        "ST_MAGNET_OK": "%MAGNET%:ST_MAGNET_OK",
        "ST_NQD0": "%MAGNET%:ST_NQD0",
        "ST_PWR_PERM": "%MAGNET%:ST_PWR_PERM"
      }
    }
  },
  "QH": {
    "Comment": "%MAGNET% example -> MB.A8R1",
    "PM": {
      "system": "QPS",
      "className": "DQAMCNMB_PMHSU",
      "source": "%CELL%",
      "U_HDS": [
        "%CELL%:U_HDS_1",
        "%CELL%:U_HDS_2",
        "%CELL%:U_HDS_3",
        "%CELL%:U_HDS_4"
      ],
      "I_HDS": [
        "%CELL%:I_HDS_1",
        "%CELL%:I_HDS_2",
        "%CELL%:I_HDS_3",
        "%CELL%:I_HDS_4"
      ]
    },
    "NXCALS": {
      "CMW": {
        "U_HDS": [
          "%MAGNET%:U_HDS_1",
          "%MAGNET%:U_HDS_2",
          "%MAGNET%:U_HDS_3",
          "%MAGNET%:U_HDS_4"
        ],
        "I_HDS": [
          "%MAGNET%:I_HDS_1",
          "%MAGNET%:I_HDS_2",
          "%MAGNET%:I_HDS_3",
          "%MAGNET%:I_HDS_4"
        ]
      }
    }
  },
  "BUSBAR": {
    "Comment": "%QPS_CRATE% example -> B8L2, %BUSBAR% example -> DCBB.8L2.R",
    "REL_IP_POS_REG_EXP": "[LR]{1}\\d{1}",
    "U_MAG_REG_EXP": "DCB%%:U_MAG",
    "U_RES_REG_EXP": "DCB%%:U_RES",
    "PM": {
      "system": "QPS",
      "className": "DQAMGNSRB_PMREL",
      "source": "%QPS_CRATE%",
      "U_MAG": "%BUSBAR%:U_MAG",
      "U_RES": "%BUSBAR%:U_RES",
      "ST_BUSBAR_OK": "%BUSBAR%:ST_BUSBAR_OK",
      "ST_PWR_PERM": "%BUSBAR%:ST_PWR_PERM"
    },
    "NXCALS": {
      "CMW": {
        "U_MAG": "%BUSBAR%:U_MAG",
        "U_RES": "%BUSBAR%:U_RES"
      }
    }
  },
  "DIODE_RB": {
    "Comment": "%QPS_CRATE% example -> B31R1, %MAGNET% example -> MB.A31R1, MB.B30R1, MB.A31R1",
    "PM": {
      "system": "QPS",
      "className": "DQAMGNSRB_PMREL",
      "source": "%QPS_CRATE%",
      "U_DIODE_RB": "%MAGNET%:U_DIODE_RB",
      "U_REF_N1": "DQQDS.%QPS_CRATE%.%CIRCUIT%:U_REF_N1",
      "ST_MAGNET_OK_SQRB": "%MAGNET%:ST_MAGNET_OK_SQRB",
      "ST_PWR_PERM_SQRB": "%MAGNET%:ST_PWR_PERM_SQRB"
    },
    "NXCALS": {
      "CMW": {
        "U_DIODE_RB": "%MAGNET%:U_DIODE_RB",
        "U_REF_N1": "DQQDS.%QPS_CRATE%.%CIRCUIT%:U_REF_N1",
        "ST_MAGNET_OK_SQRB": "%MAGNET%:ST_MAGNET_OK_SQRB",
        "ST_PWR_PERM_SQRB": "%MAGNET%:ST_PWR_PERM_SQRB"
      }
    }
  },
  "VF": {
    "Comment": "%QPS_CRATE% example -> B8L2, %MAGNET% example -> MB.A8R1",
    "PM": {
      "system": "QPS",
      "className": "DQAMGNSRB_PMREL",
      "source": "%QPS_CRATE%",
      "U_EARTH_RB": "%MAGNET%:U_EARTH_RB"
    },
    "NXCALS": {
      "CMW": {
        "U_EARTH_RB": "%MAGNET%:U_EARTH_RB"
      }
    }
  },
  "LEADS_EVEN": {
    "Comment": "%CIRCUIT% example -> RB.A12, %DFB% example -> DFLAS.7L2.RB.A12",
    "PM": {
      "system": "QPS",
      "className": "DQAMGNDRBEVEN",
      "source": "%CIRCUIT%",
      "U_BB_1": "%CIRCUIT%:U_BB_1",
      "ST_BUSBAR_OK_1": "%CIRCUIT%:ST_BUSBAR_OK_1",
      "ST_PWR_PERM_BB_1": "%CIRCUIT%:ST_PWR_PERM_BB_1",
      "U_RES": [
        "%DFB%.LD1:U_RES",
        "%DFB%.LD2:U_RES"
      ],
      "U_HTS": [
        "%DFB%.LD1:U_HTS",
        "%DFB%.LD2:U_HTS"
      ],
      "ST_LEAD_OK": [
        "%DFB%.LD1:ST_LEAD_OK",
        "%DFB%.LD2:ST_LEAD_OK"
      ],
      "ST_PWR_PERM": [
        "%DFB%.LD1:ST_PWR_PERM",
        "%DFB%.LD2:ST_PWR_PERM"
      ]
    },
    "NXCALS": {
      "CMW": {
        "U_BB_1": "%CIRCUIT%:U_BB_1",
        "ST_BUSBAR_OK_1": "%CIRCUIT%:ST_BUSBAR_OK_1",
        "ST_PWR_PERM_BB_1": "%CIRCUIT%:ST_PWR_PERM_BB_1",
        "U_RES": [
          "%DFB%.LD1:U_RES",
          "%DFB%.LD2:U_RES"
        ],
        "U_HTS": [
          "%DFB%.LD1:U_HTS",
          "%DFB%.LD2:U_HTS"
        ],
        "ST_LEAD_OK": [
          "%DFB%.LD1:ST_LEAD_OK",
          "%DFB%.LD2:ST_LEAD_OK"
        ],
        "ST_PWR_PERM": [
          "%DFB%.LD1:ST_PWR_PERM",
          "%DFB%.LD2:ST_PWR_PERM"
        ]
      },
      "WINCCOA": {
        "TT893": "%DFB_PREFIX%TT893.TEMPERATURECALC",
        "TT891A": "%DFB_PREFIX%TT891A.TEMPERATURECALC",
        "CV891": "%DFB_PREFIX%CV891.POSST"
      }
    }
  },
  "LEADS_ODD": {
    "Comment": "%CIRCUIT% example -> RB.A12, %DFB% example -> DFLAS.7R1.RB.A12",
    "PM": {
      "system": "QPS",
      "className": "DQAMGNDRBODD",
      "source": "%CIRCUIT%",
      "U_BB_2": "%CIRCUIT%:U_BB_2",
      "ST_BUSBAR_OK_2": "%CIRCUIT%:ST_BUSBAR_OK_2",
      "ST_PWR_PERM_BB_2": "%CIRCUIT%:ST_PWR_PERM_BB_2",
      "U_RES": [
        "%DFB%.LD3:U_RES",
        "%DFB%.LD4:U_RES"
      ],
      "U_HTS": [
        "%DFB%.LD3:U_HTS",
        "%DFB%.LD4:U_HTS"
      ],
      "ST_LEAD_OK": [
        "%DFB%.LD3:ST_LEAD_OK",
        "%DFB%.LD4:ST_LEAD_OK"
      ],
      "ST_PWR_PERM": [
        "%DFB%.LD3:ST_PWR_PERM",
        "%DFB%.LD4:ST_PWR_PERM"
      ]
    },
    "NXCALS": {
      "CMW": {
        "U_BB_2": "%CIRCUIT%:U_BB_2",
        "ST_BUSBAR_OK_2": "%CIRCUIT%:ST_BUSBAR_OK_2",
        "ST_PWR_PERM_BB_2": "%CIRCUIT%:ST_PWR_PERM_BB_2",
        "U_RES": [
          "%DFB%.LD3:U_RES",
          "%DFB%.LD4:U_RES"
        ],
        "U_HTS": [
          "%DFB%.LD3:U_HTS",
          "%DFB%.LD4:U_HTS"
        ],
        "ST_LEAD_OK": [
          "%DFB%.LD3:ST_LEAD_OK",
          "%DFB%.LD4:ST_LEAD_OK"
        ],
        "ST_PWR_PERM": [
          "%DFB%.LD3:ST_PWR_PERM",
          "%DFB%.LD4:ST_PWR_PERM"
        ]
      },
      "WINCCOA": {
        "TT893": "%DFB_PREFIX%TT893.TEMPERATURECALC",
        "TT891A": "%DFB_PREFIX%TT891A.TEMPERATURECALC",
        "CV891": "%DFB_PREFIX%CV891.POSST"
      }
    }
  },
  "EE_ODD": {
    "Comment": "%EE_ODD% example -> UA23.RB.A12",
    "PM": {
      "system": "QPS",
      "className": "DQAMSNRB",
      "source": "%EE_ODD%",
      "U_DUMP_RES": "%EE_ODD%:U_DUMP_RES",
      "T_RES_BODY_1": "%EE_ODD%:T_RES_BODY_1",
      "T_RES_BODY_2": "%EE_ODD%:T_RES_BODY_2",
      "T_RES_BODY_3": "%EE_ODD%:T_RES_BODY_3",
      "ST_RES_OVERTEMP": "%EE_ODD%:ST_RES_OVERTEMP",
      "ST_RES_OVERVOLT": "%EE_ODD%:ST_RES_OVERVOLT",
      "ST_PWR_PERM": "%EE_ODD%:ST_PWR_PERM"
    },
    "NXCALS": {
      "CMW": {
        "U_DUMP_RES": "DQRB.%EE_ODD%:U_DUMP_RES",
        "T_RES_BODY_1": "DQRB.%EE_ODD%:T_RES_BODY_1",
        "T_RES_BODY_2": "DQRB.%EE_ODD%:T_RES_BODY_2",
        "T_RES_BODY_3": "DQRB.%EE_ODD%:T_RES_BODY_3",
        "ST_RES_OVERTEMP": "DQRB.%EE_ODD%:ST_RES_OVERTEMP",
        "ST_RES_OVERVOLT": "DQRB.%EE_ODD%:ST_RES_OVERVOLT",
        "ST_PWR_PERM": "DQRB.%EE_ODD%:ST_PWR_PERM"
      }
    }
  },
  "EE_EVEN": {
    "Comment": "%EE_EVEN% example -> UA23.RB.A12",
    "PM": {
      "system": "QPS",
      "className": "DQAMSNRB",
      "source": "%EE_EVEN%",
      "U_DUMP_RES": "%EE_EVEN%:U_DUMP_RES",
      "T_RES_BODY_1": "%EE_EVEN%:T_RES_BODY_1",
      "T_RES_BODY_2": "%EE_EVEN%:T_RES_BODY_2",
      "T_RES_BODY_3": "%EE_EVEN%:T_RES_BODY_3",
      "ST_RES_OVERTEMP": "%EE_EVEN%:ST_RES_OVERTEMP",
      "ST_RES_OVERVOLT": "%EE_EVEN%:ST_RES_OVERVOLT",
      "ST_PWR_PERM": "%EE_EVEN%:ST_PWR_PERM"
    },
    "NXCALS": {
      "CMW": {
        "U_DUMP_RES": "DQRB.%EE_EVEN%:U_DUMP_RES",
        "T_RES_BODY_1": "DQRB.%EE_EVEN%:T_RES_BODY_1",
        "T_RES_BODY_2": "DQRB.%EE_EVEN%:T_RES_BODY_2",
        "T_RES_BODY_3": "DQRB.%EE_EVEN%:T_RES_BODY_3",
        "ST_RES_OVERTEMP": "DQRB.%EE_EVEN%:ST_RES_OVERTEMP",
        "ST_RES_OVERVOLT": "DQRB.%EE_EVEN%:ST_RES_OVERVOLT",
        "ST_PWR_PERM": "DQRB.%EE_EVEN%:ST_PWR_PERM"
      }
    }
  },
  "REL_IP_POS_TO_CIRCUIT_NAME": {
    "R1": "RB.A12",
    "L2": "RB.A12",
    "R2": "RB.A23",
    "L3": "RB.A23",
    "R3": "RB.A34",
    "L4": "RB.A34",
    "R4": "RB.A45",
    "L5": "RB.A45",
    "R5": "RB.A56",
    "L6": "RB.A56",
    "R6": "RB.A67",
    "L7": "RB.A67",
    "R7": "RB.A78",
    "L8": "RB.A78",
    "R8": "RB.A81",
    "L1": "RB.A81"
  },
  "CIRCUIT_NAME_TO_VF_REG_EXP": {
    "RB.A12": [
      "%MB.%R1%EARTH_RB",
      "%MB.%L2%EARTH_RB"
    ],
    "RB.A23": [
      "%MB.%R2%EARTH_RB",
      "%MB.%L3%EARTH_RB"
    ],
    "RB.A34": [
      "%MB.%R3%EARTH_RB",
      "%MB.%L4%EARTH_RB"
    ],
    "RB.A45": [
      "%MB.%R4%EARTH_RB",
      "%MB.%L5%EARTH_RB"
    ],
    "RB.A56": [
      "%MB.%R5%EARTH_RB",
      "%MB.%L6%EARTH_RB"
    ],
    "RB.A67": [
      "%MB.%R6%EARTH_RB",
      "%MB.%L7%EARTH_RB"
    ],
    "RB.A78": [
      "%MB.%R7%EARTH_RB",
      "%MB.%L8%EARTH_RB"
    ],
    "RB.A81": [
      "%MB.%R8%EARTH_RB",
      "%MB.%L1%EARTH_RB"
    ]
  },
  "MAGNET": {
    "MAGNET_PREFIX": "MB.",
    "MAGNET_NAME_REG_EXP": "[ABC]{1}\\d+[LR]{1}[1-8]{1}",
    "REL_IP_POS_REG_EXP": "[LR]{1}\\d{1}"
  }
}
