Circuit,Circuit2,Magnet,Name,Position,Beam,Aperture,QPS_class,Toperation,Tsensor,Cryostat,Cryostat2
RD2.R1,RD2.R1,MBRC.4R1,MBRC.4R1.B1,157.9,B1,EXT,DQAMGNRQA,4.5,TT831,LBRCD.4R1,LBRCD_04R1
RD2.R1,RD2.R1,MBRC.4R1,MBRC.4R1.B2,157.9,B2,INT,DQAMGNRQA,4.5,TT832,LBRCD.4R1,LBRCD_04R1
RD2.L2,RD2.L2,MBRC.4L2,MBRC.4L2.B1,3205.9574,B1,EXT,DQAMGNRQA,4.5,TT831,LBRCC.4L2,LBRCC_04L2
RD2.L2,RD2.L2,MBRC.4L2,MBRC.4L2.B2,3205.9574,B2,INT,DQAMGNRQA,4.5,TT832,LBRCC.4L2,LBRCC_04L2
RD1.L2,RD1.L2,MBX.4L2,MBX.4L2,3269.2524,"B1,B2",ONE,DQAMGNRD,1.9,TT821A,LBXA.4L2,LBXA_04L2
RD1.R2,RD1.R2,MBX.4R2,MBX.4R2,3395.4684,"B1,B2",ONE,DQAMGNRD,1.9,TT821A,LBXB.4R2,LBXB_04R2
RD2.R2,RD2.R2,MBRC.4R2,MBRC.4R2.B1,3458.7634,B1,INT,DQAMGNRQA,4.5,TT831,LBRCD.4R2,LBRCD_04R2
RD2.R2,RD2.R2,MBRC.4R2,MBRC.4R2.B2,3458.7634,B2,EXT,DQAMGNRQA,4.5,TT832,LBRCD.4R2,LBRCD_04R2
RD4.L4,RD4.L4,MBRB.5L4,MBRB.5L4.B1,9873.3972,B1,INT,DQAMGNRQA,4.5,TT831,LBRBA.5L4,LBRBA_05L4
RD4.L4,RD4.L4,MBRB.5L4,MBRB.5L4.B2,9873.3972,B2,EXT,DQAMGNRQA,4.5,TT831,LBRBA.5L4,LBRBA_05L4
RD3.L4,RD3.L4,MBRS.5L4,MBRS.5L4.B1,9945.2982,B1,INT,DQAMGNRQA,4.5,TT831A,LBRSA.5L4,LBRSA_05L4
RD3.L4,RD3.L4,MBRS.5L4,MBRS.5L4.B2,9945.2982,B2,EXT,DQAMGNRQA,4.5,TT831B,LBRSA.5L4,LBRSA_05L4
RD3.R4,RD3.R4,MBRS.5R4,MBRS.5R4.B1,10048.8642,B1,INT,DQAMGNRQA,4.5,TT831A,LBRSB.5R4,LBRSB_05R4
RD3.R4,RD3.R4,MBRS.5R4,MBRS.5R4.B2,10048.8642,B2,EXT,DQAMGNRQA,4.5,TT831B,LBRSB.5R4,LBRSB_05R4
RD4.R4,RD4.R4,MBRB.5R4,MBRB.5R4.B1,10120.7652,B1,INT,DQAMGNRQA,4.5,TT831,LBRBB.5R4,LBRBB_05R4
RD4.R4,RD4.R4,MBRB.5R4,MBRB.5R4.B2,10120.7652,B2,EXT,DQAMGNRQA,4.5,TT831,LBRBB.5R4,LBRBB_05R4
RD2.L5,RD2.L5,MBRC.4L5,MBRC.4L5.B1,13171.5416,B1,INT,DQAMGNRQA,4.5,TT831,LBRCA.4L5,LBRCA_04L5
RD2.L5,RD2.L5,MBRC.4L5,MBRC.4L5.B2,13171.5416,B2,EXT,DQAMGNRQA,4.5,TT831,LBRCA.4L5,LBRCA_04L5
RD2.R5,RD2.R5,MBRC.4R5,MBRC.4R5.B1,13487.3416,B1,EXT,DQAMGNRQA,4.5,TT831,LBRCB.4R5,LBRCB_04R5
RD2.R5,RD2.R5,MBRC.4R5,MBRC.4R5.B2,13487.3416,B2,INT,DQAMGNRQA,4.5,TT832,LBRCB.4R5,LBRCB_04R5
RD2.L8,RD2.L8,MBRC.4L8,MBRC.4L8.B1,23188.8998,B1,EXT,DQAMGNRQA,4.5,TT831,LBRCC.4L8,LBRCC_04L8
RD2.L8,RD2.L8,MBRC.4L8,MBRC.4L8.B2,23188.8998,B2,INT,DQAMGNRQA,4.5,TT832,LBRCC.4L8,LBRCC_04L8
RD1.L8,RD1.L8,MBX.4L8,MBX.4L8,23252.1948,"B1,B2",ONE,DQAMGNRD,1.9,TT821A,LBXA.4L8,LBXA_04L8
RD1.R8,RD1.R8,MBX.4R8,MBX.4R8,23378.4108,"B1,B2",ONE,DQAMGNRD,1.9,TT821A,LBXB.4R8,LBXB_04R8
RD2.R8,RD2.R8,MBRC.4R8,MBRC.4R8.B1,23441.7058,B1,INT,DQAMGNRQA,4.5,TT831,LBRCD.4R8,LBRCD_04R8
RD2.R8,RD2.R8,MBRC.4R8,MBRC.4R8.B2,23441.7058,B2,EXT,DQAMGNRQA,4.5,TT832,LBRCD.4R8,LBRCD_04R8
RD2.L1,RD2.L1,MBRC.4L1,MBRC.4L1.B1,26500.9832,B1,INT,DQAMGNRQA,4.5,TT831,LBRCC.4L1,LBRCC_04L1
RD2.L1,RD2.L1,MBRC.4L1,MBRC.4L1.B2,26500.9832,B2,EXT,DQAMGNRQA,4.5,TT831,LBRCC.4L1,LBRCC_04L1
