Magnet,Position,Period->,Initial,Incident,Run1,LS1,Run2,LS2,Run3
MQY.4R1,169.553,,622,,622,,622,,622
MQML.5R1,196.49,,623,,623,,623,,623
MQML.6R1,228.39,,624,,624,,624,,624
MQM.A7R1,261.704,,625,,625,,625,,625
MQM.B7R1,265.471,,625,,625,,625,,625
MQML.8R1,303.842,,667,,667,,667,,667
MQMC.9R1,341.739,,677,,677,,677,,677
MQM.9R1,345.005,,677,,677,,677,,677
MQML.10R1,383.372,,654,,654,,654,,654
MQML.10L2,2947.9684,,665,,665,,665,,665
MQMC.9L2,2985.8654,,666,,666,,666,,666
MQM.9L2,2989.1314,,666,,666,,666,,666
MQML.8L2,3027.4984,,652,,652,,652,,652
MQM.B7L2,3065.8654,,690,,690,,690,,690
MQM.A7L2,3069.6324,,690,,690,,690,,690
MQML.6L2,3088.6124,,669,,669,,669,,669
MQM.6L2,3093.0794,,669,,669,,669,,669
MQY.B5L2,3161.2504,,670,,670,,670,,670
MQY.A5L2,3165.0314,,670,,670,,670,,670
MQY.B4L2,3190.9894,,671,,671,,671,,671
MQY.A4L2,3194.7704,,671,,671,,671,,671
MQY.A4R2,3469.9504,,608,,608,,608,,608
MQY.B4R2,3473.7314,,608,,608,,608,,608
MQM.A5R2,3499.6894,,673,,673,,673,,673
MQM.B5R2,3503.4704,,673,,673,,673,,673
MQML.6R2,3572.3414,,674,,674,,674,,674
MQM.6R2,3576.8084,,674,,674,,674,,674
MQM.A7R2,3594.5754,,675,,675,,675,,675
MQM.B7R2,3598.3424,,675,,675,,675,,675
MQML.8R2,3636.7134,,676,,676,,676,,676
MQMC.9R2,3674.6104,,639,,639,,639,,639
MQM.9R2,3677.8764,,639,,639,,639,,639
MQML.10R2,3716.2434,,678,,678,,678,,678
MQML.10L4,9612.6892,,631,,631,,631,,631
MQMC.9L4,9650.5862,,630,,630,,630,,630
MQM.9L4,9653.8522,,630,,630,,630,,630
MQML.8L4,9692.2192,,629,,629,,629,,629
MQM.7L4,9730.7142,,632,,632,,632,,632
MQY.6L4,9827.4612,,633,,633,,633,,633
MQY.5L4,9864.4612,,634,,634,,634,,634
MQY.5R4,10129.7012,,635,,635,,635,,635
MQY.6R4,10166.7012,,636,,636,,636,,636
MQM.7R4,10263.0742,,637,,637,,637,,637
MQML.8R4,10301.4342,,638,,638,,638,,638
MQMC.9R4,10339.3312,,642,,642,,642,,642
MQM.9R4,10342.5972,,642,,642,,642,,642
MQML.10R4,10380.9642,,626,,626,,626,,626
MQML.10L5,12945.5606,,617,,617,,617,,617
MQMC.9L5,12983.4576,,691,,691,,691,,691
MQM.9L5,12986.7236,,691,,691,,691,,691
MQML.8L5,13025.0906,,612,,612,,612,,612
MQM.B7L5,13063.4576,,644,,644,,644,,644
MQM.A7L5,13067.2246,,644,,644,,644,,644
MQML.6L5,13101.0516,,645,,645,,645,,645
MQML.5L5,13132.9516,,646,,646,,646,,646
MQY.4L5,13159.8886,,647,,647,,647,,647
MQY.4R5,13498.9946,,648,,648,,648,,648
MQML.5R5,13525.9316,,650,,650,,650,,650
MQML.6R5,13557.8316,,649,,649,,649,,649
MQM.A7R5,13591.1456,,651,,651,,651,,651
MQM.B7R5,13594.9126,,651,,651,,651,,651
MQML.8R5,13633.2836,,640,,640,,640,,640
MQMC.9R5,13671.1806,,653,,653,,653,,653
MQM.9R5,13674.4466,,653,,653,,653,,653
MQML.10R5,13712.8136,,657,,657,,657,,657
MQML.10L6,16277.41,,655,,655,,655,,655
MQMC.9L6,16315.307,,656,,656,,656,,656
MQM.9L6,16318.573,,656,,656,,656,,656
MQML.8L6,16356.94,,628,,628,,628,,628
MQY.5L6,16453.602,,658,,658,,658,,658
MQY.4L6,16490.002,,659,,659,,659,,659
MQY.4R6,16833.602,,660,,660,,660,,660
MQY.5R6,16870.002,,661,,661,,661,,661
MQML.8R6,16966.155,,662,,662,,662,,662
MQMC.9R6,17004.052,,663,,663,,663,,663
MQM.9R6,17007.318,,663,,663,,663,,663
MQML.10R6,17045.685,,664,,664,,664,,664
MQML.10L8,22942.1308,,602,,602,,602,,602
MQMC.9L8,22980.0278,,613,,613,,613,,613
MQM.9L8,22983.2938,,613,,613,,613,,613
MQML.8L8,23021.6608,,601,,601,,601,,601
MQM.B7L8,23060.0278,,604,,604,,604,,604
MQM.A7L8,23063.7948,,604,,604,,604,,604
MQML.6L8,23083.1378,,605,,605,,605,,605
MQM.6L8,23087.6048,,605,,605,,605,,605
MQM.B5L8,23144.2008,,606,,606,1,696,,696
MQM.A5L8,23147.9818,,606,,606,1,696,,696
MQY.B4L8,23173.9318,,607,,607,,607,,607
MQY.A4L8,23177.7128,,607,,607,,607,,607
MQY.A4R8,23452.8928,,672,,672,,672,,672
MQY.B4R8,23456.6738,,672,,672,,672,,672
MQY.A5R8,23482.6388,,609,,609,,609,,609
MQY.B5R8,23486.4198,,609,,609,,609,,609
MQML.6R8,23557.1388,,610,,610,,610,,610
MQM.6R8,23561.6058,,610,,610,,610,,610
MQM.A7R8,23588.7378,,611,,611,,611,,611
MQM.B7R8,23592.5048,,611,,611,,611,,611
MQML.8R8,23630.8758,,614,,614,,614,,614
MQMC.9R8,23668.7728,,627,,627,,627,,627
MQM.9R8,23672.0388,,627,,627,,627,,627
MQML.10R8,23710.4058,,643,,643,,643,,643
MQML.10L1,26275.0022,,641,,641,,641,,641
MQMC.9L1,26312.8992,,616,,616,,616,,616
MQM.9L1,26316.1652,,616,,616,,616,,616
MQML.8L1,26354.5322,,615,,615,,615,,615
MQM.B7L1,26392.8992,,618,,618,,618,,618
MQM.A7L1,26396.6662,,618,,618,,618,,618
MQML.6L1,26430.4932,,619,,619,,619,,619
MQML.5L1,26462.3932,,620,,620,,620,,620
MQY.4L1,26489.3302,,621,,621,,621,,621
