Magnet,Position,Period->,Initial,Incident,Run1,LS1,Run2,LS2,Run3
MQXA.1R1,26.15,,6,,6,,6,,6
MQXB.A2R1,34.8,,10,,10,,10,,10
MQXB.B2R1,41.3,,10,,10,,10,,10
MQXA.3R1,50.15,,8,,8,,8,,8
MQXA.3L2,3282.2104,,1,,1,,1,,1
MQXB.B2L2,3291.0604,,11,,11,,11,,11
MQXB.A2L2,3297.5604,,11,,11,,11,,11
MQXA.1L2,3306.2104,,7,,7,,7,,7
MQXA.1R2,3358.5104,,9,,9,,9,,9
MQXB.A2R2,3367.1604,,9,,9,,9,,9
MQXB.B2R2,3373.6604,,9,,9,,9,,9
MQXA.3R2,3382.5104,,2,,2,,2,,2
MQXA.3L5,13279.2916,,4,,4,,4,,4
MQXB.B2L5,13288.1416,,5,,5,,5,,5
MQXB.A2L5,13294.6416,,5,,5,,5,,5
MQXA.1L5,13303.2916,,3,,3,,3,,3
MQXA.1R5,13355.5916,,5,,5,,5,,5
MQXB.A2R5,13364.2416,,3,,3,,3,,3
MQXB.B2R5,13370.7416,,3,,3,,3,,3
MQXA.3R5,13379.5916,,7,,7,,7,,7
MQXA.3L8,23265.1528,,3,,3,,3,,3
MQXB.B2L8,23274.0028,,4,,4,,4,,4
MQXB.A2L8,23280.5028,,4,,4,,4,,4
MQXA.1L8,23289.1528,,1,,1,,1,,1
MQXA.1R8,23341.4528,,4,,4,,4,,4
MQXB.A2R8,23350.1028,,8,,8,,8,,8
MQXB.B2R8,23356.6028,,8,,8,,8,,8
MQXA.3R8,23365.4528,,6,,6,,6,,6
MQXA.3L1,26608.7332,,5,,5,,5,,5
MQXB.B2L1,26617.5832,,6,,6,,6,,6
MQXB.A2L1,26624.0832,,6,,6,,6,,6
MQXA.1L1,26632.7332,,2,,2,,2,,2
